<?xml version="1.0" encoding="UTF-8"?>
<OAI-PMH xmlns="http://www.openarchives.org/OAI/2.0/"
         xmlns:xsi="http://www.w3.org/2001/XMLSchema-instance"
         xsi:schemaLocation="http://www.openarchives.org/OAI/2.0/
 http://www.openarchives.org/OAI/2.0/OAI-PMH.xsd">
    <responseDate>2002-06-01T19:20:30Z</responseDate>
    <request verb="ListIdentifiers" metadataPrefix="oai_lom">
        http://koolitaja.eenet.ee:57219/Waramu3Web/OAIHandler
    </request>
    <ListIdentifiers>
        <header>
            <identifier>identifier3</identifier>
            <datestamp>2016-11-29T22:00:00Z</datestamp>
        </header>
        <resumptionToken completeListSize="1" cursor="1"/>
    </ListIdentifiers>
</OAI-PMH>